<svg width="1892" height="824" viewBox="0 0 1892 824" fill="none" xmlns="http://www.w3.org/2000/svg">
<rect width="1892" height="824" rx="12" fill="url(#paint0_linear_12_587)"/>
<defs>
<linearGradient id="paint0_linear_12_587" x1="946" y1="0" x2="946" y2="824" gradientUnits="userSpaceOnUse">
<stop stop-color="#EAF0FF"/>
<stop offset="1" stop-color="#FFF8F3" stop-opacity="0"/>
</linearGradient>
</defs>
</svg>
